// Jest Snapshot v1, https://goo.gl/fbAQLP

exports[`the ContactForm component should render correctly by default 1`] = `
<form
  onSubmit={[Function]}
>
  <h2>
    Contact Us
  </h2>
  <label
    htmlFor="name"
  >
    Name
  </label>
  <input
    id="name"
    name="name"
    onChange={[Function]}
    type="text"
    value=""
  />
  <label
    htmlFor="email"
  >
    Email
  </label>
  <input
    id="email"
    name="email"
    onChange={[Function]}
    type="email"
    value=""
  />
  <label
    htmlFor="message"
  >
    Message
  </label>
  <textarea
    id="message"
    name="message"
    onChange={[Function]}
    value=""
  />
  <input
    type="submit"
    value="Send Message"
  />
</form>
`;
